…
``` r
###resuelva acá
summary(df$Venta)
```

    ##     Min.  1st Qu.   Median     Mean  3rd Qu.     Max. 
    ##  -622.60     0.00     0.00    27.79    23.31 44460.00

``` r
bajo_media=df %>%select(Territorio,  `Unidades plaza`, Venta) %>% group_by(Territorio) %>% summarise(Unidades= sum(`Unidades plaza`),Ventas=sum(Venta), Ingreso_unitario=Ventas/Unidades) %>% filter(Ingreso_unitario<mean(Ingreso_unitario))
bajo_media=bajo_media[order(bajo_media$Ingreso_unitario, decreasing = F),]
bajo_media
```

    ## # A tibble: 59 x 4
    ##    Territorio Unidades  Ventas Ingreso_unitario
    ##    <chr>         <dbl>   <dbl>            <dbl>
    ##  1 13b223c9         11    49.9             4.54
    ##  2 e6fd9da9          4    18.2             4.54
    ##  3 e034e3c8         49   247.              5.04
    ##  4 cf970512       1166  6375.              5.47
    ##  5 67696f68       7734 47176.              6.10
    ##  6 6c8335a4        578  3594.              6.22
    ##  7 d02bf225        202  1315.              6.51
    ##  8 0bfe69a0         58   384.              6.63
    ##  9 5d43dd39        976  6479.              6.64
    ## 10 1a9b2b4c        939  6437.              6.86
    ## # ... with 49 more rows
…
